{
  "_class": "shapeGroup",
  "clippingMaskMode": 0,
  "do_objectID": "9C97D432-EAF5-46F3-8033-AA0228E2E93A",
  "exportOptions": {
    "_class": "exportOptions",
    "exportFormats": [
    ],
    "includedLayerIds": [
    ],
    "layerOptions": 0,
    "shouldTrim": false
  },
  "frame": {
    "_class": "rect",
    "constrainProportions": false,
    "height": 4,
    "width": 4.001398625665387,
    "x": 116.9986013743346,
    "y": 0
  },
  "hasClickThrough": false,
  "hasClippingMask": false,
  "isFlippedHorizontal": false,
  "isFlippedVertical": false,
  "isLocked": false,
  "isVisible": true,
  "layerListExpandedType": 0,
  "layers": [
    {
      "class": "rectangle",
      "id": "2A1453E0-41A4-447F-8DE1-6FF8EAE943F2"
    }
  ],
  "name": "Rectangle 5 Copy 7",
  "nameIsFixed": false,
  "resizingConstraint": 63,
  "resizingType": 0,
  "rotation": 0,
  "shouldBreakMaskChain": false,
  "style": {
    "sharedObjectID": "9CB928EF-78AC-4324-A09C-757116A899EA"
  },
  "windingRule": 1
}