{
  "_class": "group",
  "do_objectID": "2FF8BB4A-0129-46F4-8A30-BC87E455226E",
  "exportOptions": {
    "_class": "exportOptions",
    "exportFormats": [
    ],
    "includedLayerIds": [
    ],
    "layerOptions": 0,
    "shouldTrim": false
  },
  "frame": {
    "_class": "rect",
    "constrainProportions": false,
    "height": 28,
    "width": 96,
    "x": 0.5,
    "y": 0
  },
  "hasClickThrough": false,
  "isFlippedHorizontal": false,
  "isFlippedVertical": false,
  "isLocked": false,
  "isVisible": true,
  "layerListExpandedType": 0,
  "layers": [
    {
      "class": "shapeGroup",
      "id": "97EBA0B7-BF76-453D-AEA5-C853A03CBB16"
    },
    {
      "class": "shapeGroup",
      "id": "9A390BF8-14BE-4201-B603-AA887D84FF2D"
    },
    {
      "class": "text",
      "id": "6DE5FA85-E402-4D3D-BA18-7A939907C895"
    }
  ],
  "name": "global-components/tooltips/top",
  "nameIsFixed": false,
  "resizingConstraint": 63,
  "resizingType": 0,
  "rotation": 0,
  "shouldBreakMaskChain": false,
  "style": {
    "_class": "style",
    "endDecorationType": 0,
    "miterLimit": 10,
    "startDecorationType": 0
  }
}