{
  "_class": "shapePath",
  "booleanOperation": -1,
  "do_objectID": "76F3A5D2-4292-4BF8-A68F-4ED5560DA241",
  "edited": true,
  "exportOptions": {
    "_class": "exportOptions",
    "exportFormats": [
    ],
    "includedLayerIds": [
    ],
    "layerOptions": 0,
    "shouldTrim": false
  },
  "frame": {
    "_class": "rect",
    "constrainProportions": false,
    "height": 14.5902905342081,
    "width": 12.78399968211952,
    "x": 0,
    "y": -1.77635683940025e-15
  },
  "isFlippedHorizontal": false,
  "isFlippedVertical": false,
  "isLocked": false,
  "isVisible": true,
  "layerListExpandedType": 0,
  "name": "Fill-20-path",
  "nameIsFixed": false,
  "path": {
    "_class": "path",
    "isClosed": true,
    "pointRadiusBehaviour": 0,
    "points": [
      {
        "_class": "curvePoint",
        "cornerRadius": 0,
        "curveFrom": "{0.88435655129733159, 0}",
        "curveMode": 1,
        "curveTo": "{0.88435655129733159, 0}",
        "hasCurveFrom": false,
        "hasCurveTo": false,
        "point": "{0.88435655129733159, 0}"
      },
      {
        "_class": "curvePoint",
        "cornerRadius": 0,
        "curveFrom": "{0.88435655129733159, 0}",
        "curveMode": 1,
        "curveTo": "{0.88435655129733159, 0}",
        "hasCurveFrom": false,
        "hasCurveTo": false,
        "point": "{0.88435655129733159, 0}"
      },
      {
        "_class": "curvePoint",
        "cornerRadius": 0,
        "curveFrom": "{1.006469862557585, 0.33160669688280453}",
        "curveMode": 4,
        "curveTo": "{0.99626277941080199, 0.30389081827431652}",
        "hasCurveFrom": true,
        "hasCurveTo": false,
        "point": "{0.99626277941080199, 0.30389081827431652}"
      },
      {
        "_class": "curvePoint",
        "cornerRadius": 0,
        "curveFrom": "{0.96856736986406866, 0.37910041119734944}",
        "curveMode": 4,
        "curveTo": "{0.99529067625396572, 0.36197139277335377}",
        "hasCurveFrom": false,
        "hasCurveTo": true,
        "point": "{0.96856736986406866, 0.37910041119734944}"
      },
      {
        "_class": "curvePoint",
        "cornerRadius": 0,
        "curveFrom": "{0, 1}",
        "curveMode": 1,
        "curveTo": "{0, 1}",
        "hasCurveFrom": false,
        "hasCurveTo": false,
        "point": "{0, 1}"
      },
      {
        "_class": "curvePoint",
        "cornerRadius": 0,
        "curveFrom": "{0.88435655129733159, 0}",
        "curveMode": 1,
        "curveTo": "{0.88435655129733159, 0}",
        "hasCurveFrom": false,
        "hasCurveTo": false,
        "point": "{0.88435655129733159, 0}"
      }
    ]
  },
  "resizingConstraint": 63,
  "resizingType": 0,
  "rotation": 0,
  "shouldBreakMaskChain": false
}