{
  "_class": "group",
  "do_objectID": "CBF4D8B4-F3A2-4D3F-9F3A-5D85CB63836E",
  "exportOptions": {
    "_class": "exportOptions",
    "exportFormats": [
    ],
    "includedLayerIds": [
    ],
    "layerOptions": 0,
    "shouldTrim": false
  },
  "frame": {
    "_class": "rect",
    "constrainProportions": false,
    "height": 28,
    "width": 96,
    "x": 0.5,
    "y": 0
  },
  "hasClickThrough": false,
  "isFlippedHorizontal": false,
  "isFlippedVertical": false,
  "isLocked": false,
  "isVisible": true,
  "layerListExpandedType": 0,
  "layers": [
    {
      "class": "shapeGroup",
      "id": "92397E38-E701-49EC-98CE-113FC26B90F7"
    },
    {
      "class": "shapeGroup",
      "id": "1F734E23-5A6F-486F-AFE4-662D0CEC8488"
    },
    {
      "class": "text",
      "id": "1DDF9BD1-811B-4F4C-8652-3F11815BFDE1"
    }
  ],
  "name": "global-components/tooltips/top",
  "nameIsFixed": false,
  "resizingConstraint": 63,
  "resizingType": 0,
  "rotation": 0,
  "shouldBreakMaskChain": false,
  "style": {
    "_class": "style",
    "endDecorationType": 0,
    "miterLimit": 10,
    "startDecorationType": 0
  }
}