{
  "_class": "group",
  "do_objectID": "40F2739D-2667-4C19-9144-D192FD2D1CDF",
  "exportOptions": {
    "_class": "exportOptions",
    "exportFormats": [
    ],
    "includedLayerIds": [
    ],
    "layerOptions": 0,
    "shouldTrim": false
  },
  "frame": {
    "_class": "rect",
    "constrainProportions": false,
    "height": 18,
    "width": 229,
    "x": 237,
    "y": 58
  },
  "hasClickThrough": false,
  "isFlippedHorizontal": false,
  "isFlippedVertical": false,
  "isLocked": false,
  "isVisible": true,
  "layerListExpandedType": 0,
  "layers": [
    {
      "class": "shapeGroup",
      "id": "D33EDF46-BFE5-4188-9C6D-1A6C709D6869"
    },
    {
      "class": "text",
      "id": "16B7A0C7-45FE-4A7B-A947-DFDAB5708781"
    },
    {
      "class": "text",
      "id": "805D82D4-0BA5-401C-8ABC-10EEC91E534E"
    },
    {
      "class": "text",
      "id": "07755339-30F7-411D-9B92-C0AE6AB0F1CB"
    },
    {
      "class": "text",
      "id": "8A09D9A9-46D5-4BDB-96DE-4F11FC7CEFAF"
    },
    {
      "class": "text",
      "id": "712CE666-2E6B-44E1-809E-086357AFA5F8"
    }
  ],
  "name": "Breadcrumbs",
  "nameIsFixed": true,
  "resizingConstraint": 63,
  "resizingType": 0,
  "rotation": 0,
  "shouldBreakMaskChain": false,
  "style": {
    "_class": "style",
    "endDecorationType": 0,
    "miterLimit": 10,
    "startDecorationType": 0
  }
}