{
  "_class": "shapeGroup",
  "clippingMaskMode": 0,
  "do_objectID": "747AF9C7-3008-402C-A10A-B33299152603",
  "exportOptions": {
    "_class": "exportOptions",
    "exportFormats": [
    ],
    "includedLayerIds": [
    ],
    "layerOptions": 0,
    "shouldTrim": false
  },
  "frame": {
    "_class": "rect",
    "constrainProportions": false,
    "height": 4,
    "width": 8,
    "x": 44,
    "y": 24
  },
  "hasClickThrough": false,
  "hasClippingMask": false,
  "isFlippedHorizontal": false,
  "isFlippedVertical": false,
  "isLocked": false,
  "isVisible": true,
  "layerListExpandedType": 1,
  "layers": [
    {
      "class": "triangle",
      "id": "5D3FD8BD-428C-4907-84F0-769F9AD89260"
    }
  ],
  "name": "Triangle",
  "nameIsFixed": false,
  "resizingConstraint": 37,
  "resizingType": 0,
  "rotation": 0,
  "shouldBreakMaskChain": false,
  "style": {
    "sharedObjectID": "FBAAE206-1B7D-4559-A64D-AF713EE8FE68"
  },
  "windingRule": 1
}