{
  "_class": "symbolInstance",
  "do_objectID": "E46082FE-082A-464E-A911-6936FE26763D",
  "exportOptions": {
    "_class": "exportOptions",
    "exportFormats": [
    ],
    "includedLayerIds": [
    ],
    "layerOptions": 0,
    "shouldTrim": false
  },
  "frame": {
    "_class": "rect",
    "constrainProportions": false,
    "height": 16,
    "width": 16,
    "x": 8,
    "y": 8
  },
  "horizontalSpacing": 0,
  "isFlippedHorizontal": false,
  "isFlippedVertical": false,
  "isLocked": false,
  "isVisible": true,
  "layerListExpandedType": 0,
  "masterInfluenceEdgeMaxXPadding": 88,
  "masterInfluenceEdgeMaxYPadding": 528,
  "masterInfluenceEdgeMinXPadding": 682,
  "masterInfluenceEdgeMinYPadding": 264,
  "name": "icn/plus",
  "nameIsFixed": false,
  "overrides": {
    "C44A1C5E-6315-408D-95E0-CA8D6F4FCB5A": {
      "symbolID": "B317526B-A873-4024-958F-38CA946FD846"
    }
  },
  "resizingConstraint": 63,
  "resizingType": 0,
  "rotation": 0,
  "shouldBreakMaskChain": false,
  "style": {
    "_class": "style",
    "endDecorationType": 0,
    "miterLimit": 10,
    "startDecorationType": 0
  },
  "symbolID": "85822C64-3BDB-406F-812D-C7A67EDADD47",
  "verticalSpacing": 0
}