{
  "_class": "shapePath",
  "booleanOperation": -1,
  "do_objectID": "EE1E8C92-450A-4EC2-951A-B0C3B522CF1B",
  "edited": true,
  "exportOptions": {
    "_class": "exportOptions",
    "exportFormats": [
    ],
    "includedLayerIds": [
    ],
    "layerOptions": 0,
    "shouldTrim": false
  },
  "frame": {
    "_class": "rect",
    "constrainProportions": false,
    "height": 12,
    "width": 6,
    "x": 2,
    "y": 2
  },
  "isFlippedHorizontal": false,
  "isFlippedVertical": false,
  "isLocked": false,
  "isVisible": true,
  "layerListExpandedType": 0,
  "name": "Path",
  "nameIsFixed": false,
  "path": {
    "_class": "path",
    "isClosed": true,
    "pointRadiusBehaviour": 1,
    "points": [
      {
        "_class": "curvePoint",
        "cornerRadius": 0,
        "curveFrom": "{0.074619208361534461, 0}",
        "curveMode": 4,
        "curveTo": "{0.16666666666666666, 0}",
        "hasCurveFrom": true,
        "hasCurveTo": false,
        "point": "{0.16666666666666666, 0}"
      },
      {
        "_class": "curvePoint",
        "cornerRadius": 0,
        "curveFrom": "{0, 0.083333333333333329}",
        "curveMode": 4,
        "curveTo": "{0, 0.037309604180767231}",
        "hasCurveFrom": false,
        "hasCurveTo": true,
        "point": "{0, 0.083333333333333329}"
      },
      {
        "_class": "curvePoint",
        "cornerRadius": 0,
        "curveFrom": "{0, 0.96269039581923277}",
        "curveMode": 4,
        "curveTo": "{0, 0.91666666666666663}",
        "hasCurveFrom": true,
        "hasCurveTo": false,
        "point": "{0, 0.91666666666666663}"
      },
      {
        "_class": "curvePoint",
        "cornerRadius": 0,
        "curveFrom": "{0.16666666666666666, 1}",
        "curveMode": 4,
        "curveTo": "{0.074619208361534461, 1}",
        "hasCurveFrom": false,
        "hasCurveTo": true,
        "point": "{0.16666666666666666, 1}"
      },
      {
        "_class": "curvePoint",
        "cornerRadius": 0,
        "curveFrom": "{0.92538079163846554, 1}",
        "curveMode": 4,
        "curveTo": "{0.83333333333333337, 1}",
        "hasCurveFrom": true,
        "hasCurveTo": false,
        "point": "{0.83333333333333337, 1}"
      },
      {
        "_class": "curvePoint",
        "cornerRadius": 0,
        "curveFrom": "{1, 0.91666666666666663}",
        "curveMode": 4,
        "curveTo": "{1, 0.96269039581923277}",
        "hasCurveFrom": false,
        "hasCurveTo": true,
        "point": "{1, 0.91666666666666663}"
      },
      {
        "_class": "curvePoint",
        "cornerRadius": 0,
        "curveFrom": "{1, 0.037309604180767231}",
        "curveMode": 4,
        "curveTo": "{1, 0.083333333333333329}",
        "hasCurveFrom": true,
        "hasCurveTo": false,
        "point": "{1, 0.083333333333333329}"
      },
      {
        "_class": "curvePoint",
        "cornerRadius": 0,
        "curveFrom": "{0.83333333333333337, 0}",
        "curveMode": 4,
        "curveTo": "{0.92538079163846554, 0}",
        "hasCurveFrom": false,
        "hasCurveTo": true,
        "point": "{0.83333333333333337, 0}"
      }
    ]
  },
  "resizingConstraint": 63,
  "resizingType": 0,
  "rotation": 0,
  "shouldBreakMaskChain": false
}