{
  "_class": "shapePath",
  "booleanOperation": -1,
  "do_objectID": "B3C78837-68B8-4B8A-BD58-FE9D26225133",
  "edited": true,
  "exportOptions": {
    "_class": "exportOptions",
    "exportFormats": [
    ],
    "includedLayerIds": [
    ],
    "layerOptions": 0,
    "shouldTrim": false
  },
  "frame": {
    "_class": "rect",
    "constrainProportions": false,
    "height": 1.050558140571723,
    "width": 1.05029254086161,
    "x": 7.586709885170957,
    "y": 1.900165888515394
  },
  "isFlippedHorizontal": false,
  "isFlippedVertical": false,
  "isLocked": false,
  "isVisible": true,
  "layerListExpandedType": 0,
  "name": "Path",
  "nameIsFixed": false,
  "path": {
    "_class": "path",
    "isClosed": true,
    "pointRadiusBehaviour": 1,
    "points": [
      {
        "_class": "curvePoint",
        "cornerRadius": 0,
        "curveFrom": "{0.01183302981750245, 0.015048985780989454}",
        "curveMode": 4,
        "curveTo": "{0, 4.4408920985006262e-16}",
        "hasCurveFrom": true,
        "hasCurveTo": false,
        "point": "{0, 4.4408920985006262e-16}"
      },
      {
        "_class": "curvePoint",
        "cornerRadius": 0,
        "curveFrom": "{0.038000000000000256, 0.043000000000000149}",
        "curveMode": 4,
        "curveTo": "{0.024520586560527136, 0.029405957884939493}",
        "hasCurveFrom": false,
        "hasCurveTo": true,
        "point": "{0.038000000000000256, 0.043000000000000149}"
      },
      {
        "_class": "curvePoint",
        "cornerRadius": 0,
        "curveFrom": "{0, 0}",
        "curveMode": 1,
        "curveTo": "{0, 0}",
        "hasCurveFrom": false,
        "hasCurveTo": false,
        "point": "{0, 0}"
      }
    ]
  },
  "resizingConstraint": 63,
  "resizingType": 0,
  "rotation": 0,
  "shouldBreakMaskChain": false
}